{
  "metadata": {
  },
  "project_uri": "https://rubygems.org/gems/danger-gitlab",
  "gem_uri": "https://rubygems.org/gems/danger-gitlab-8.0.0.gem",
  "homepage_uri": "http://github.com/danger/danger",
  "wiki_uri": null,
  "documentation_uri": "https://www.rubydoc.info/gems/danger-gitlab/8.0.0",
  "mailing_list_uri": null,
  "source_code_uri": null,
  "bug_tracker_uri": null,
  "changelog_uri": null,
  "funding_uri": null
}