{
  "metadata": {
    "wiki_uri": "https://github.com/flori/json/wiki",
    "homepage_uri": "http://flori.github.io/json/",
    "changelog_uri": "https://github.com/flori/json/blob/master/CHANGES.md",
    "bug_tracker_uri": "https://github.com/flori/json/issues",
    "source_code_uri": "https://github.com/flori/json",
    "documentation_uri": "http://flori.github.io/json/doc/index.html"
  },
  "project_uri": "https://rubygems.org/gems/json",
  "gem_uri": "https://rubygems.org/gems/json-2.6.3.gem",
  "homepage_uri": "http://flori.github.io/json/",
  "wiki_uri": "https://github.com/flori/json/wiki",
  "documentation_uri": "http://flori.github.io/json/doc/index.html",
  "mailing_list_uri": null,
  "source_code_uri": "https://github.com/flori/json",
  "bug_tracker_uri": "https://github.com/flori/json/issues",
  "changelog_uri": "https://github.com/flori/json/blob/master/CHANGES.md",
  "funding_uri": null
}