{
  "metadata": {
  },
  "project_uri": "https://rubygems.org/gems/omniauth-shibboleth-redux",
  "gem_uri": "https://rubygems.org/gems/omniauth-shibboleth-redux-2.0.0.gem",
  "homepage_uri": "",
  "wiki_uri": null,
  "documentation_uri": "https://www.rubydoc.info/gems/omniauth-shibboleth-redux/2.0.0",
  "mailing_list_uri": null,
  "source_code_uri": null,
  "bug_tracker_uri": null,
  "changelog_uri": null,
  "funding_uri": null
}