{
  "metadata": {
    "changelog_uri": "https://github.com/ElMassimo/vite_ruby/blob/vite_rails@3.0.15/vite_rails/CHANGELOG.md",
    "source_code_uri": "https://github.com/ElMassimo/vite_ruby/tree/vite_rails@3.0.15/vite_rails"
  },
  "project_uri": "https://rubygems.org/gems/vite_rails",
  "gem_uri": "https://rubygems.org/gems/vite_rails-3.0.15.gem",
  "homepage_uri": "https://github.com/ElMassimo/vite_ruby",
  "wiki_uri": null,
  "documentation_uri": null,
  "mailing_list_uri": null,
  "source_code_uri": "https://github.com/ElMassimo/vite_ruby/tree/vite_rails@3.0.15/vite_rails",
  "bug_tracker_uri": null,
  "changelog_uri": "https://github.com/ElMassimo/vite_ruby/blob/vite_rails@3.0.15/vite_rails/CHANGELOG.md",
  "funding_uri": null
}