{
  "metadata": {
  },
  "project_uri": "https://rubygems.org/gems/tomlrb",
  "gem_uri": "https://rubygems.org/gems/tomlrb-2.0.3.gem",
  "homepage_uri": "https://github.com/fbernier/tomlrb",
  "wiki_uri": null,
  "documentation_uri": "https://www.rubydoc.info/gems/tomlrb/2.0.3",
  "mailing_list_uri": null,
  "source_code_uri": null,
  "bug_tracker_uri": null,
  "changelog_uri": null,
  "funding_uri": null
}