{
  "metadata": {
  },
  "project_uri": "https://rubygems.org/gems/guard-rspec",
  "gem_uri": "https://rubygems.org/gems/guard-rspec-4.7.3.gem",
  "homepage_uri": "https://github.com/guard/guard-rspec",
  "wiki_uri": "http://github.com/guard/guard-rspec/wiki",
  "documentation_uri": "http://github.com/guard/guard-rspec#readme",
  "mailing_list_uri": "http://github.com/guard/guard-rspec/issues",
  "source_code_uri": "http://github.com/guard/guard-rspec",
  "bug_tracker_uri": "http://github.com/guard/guard-rspec/issues",
  "changelog_uri": null,
  "funding_uri": null
}