{
  "metadata": {
    "homepage_uri": "https://ttytoolkit.org",
    "changelog_uri": "https://github.com/piotrmurach/tty-color/blob/master/CHANGELOG.md",
    "bug_tracker_uri": "https://github.com/piotrmurach/tty-color/issues",
    "source_code_uri": "https://github.com/piotrmurach/tty-color",
    "allowed_push_host": "https://rubygems.org",
    "documentation_uri": "https://www.rubydoc.info/gems/tty-color"
  },
  "project_uri": "https://rubygems.org/gems/tty-color",
  "gem_uri": "https://rubygems.org/gems/tty-color-0.6.0.gem",
  "homepage_uri": "https://ttytoolkit.org",
  "wiki_uri": null,
  "documentation_uri": "https://www.rubydoc.info/gems/tty-color",
  "mailing_list_uri": null,
  "source_code_uri": "https://github.com/piotrmurach/tty-color",
  "bug_tracker_uri": "https://github.com/piotrmurach/tty-color/issues",
  "changelog_uri": "https://github.com/piotrmurach/tty-color/blob/master/CHANGELOG.md",
  "funding_uri": null
}