{
  "metadata": {
    "wiki_uri": "https://github.com/rubyzip/rubyzip/wiki",
    "changelog_uri": "https://github.com/rubyzip/rubyzip/blob/v2.3.2/Changelog.md",
    "bug_tracker_uri": "https://github.com/rubyzip/rubyzip/issues",
    "source_code_uri": "https://github.com/rubyzip/rubyzip/tree/v2.3.2",
    "documentation_uri": "https://www.rubydoc.info/gems/rubyzip/2.3.2"
  },
  "project_uri": "https://rubygems.org/gems/rubyzip",
  "gem_uri": "https://rubygems.org/gems/rubyzip-2.3.2.gem",
  "homepage_uri": "http://github.com/rubyzip/rubyzip",
  "wiki_uri": "https://github.com/rubyzip/rubyzip/wiki",
  "documentation_uri": "https://www.rubydoc.info/gems/rubyzip/2.3.2",
  "mailing_list_uri": null,
  "source_code_uri": "https://github.com/rubyzip/rubyzip/tree/v2.3.2",
  "bug_tracker_uri": "https://github.com/rubyzip/rubyzip/issues",
  "changelog_uri": "https://github.com/rubyzip/rubyzip/blob/v2.3.2/Changelog.md",
  "funding_uri": null
}