{
  "metadata": {
  },
  "project_uri": "https://rubygems.org/gems/murmurhash3",
  "gem_uri": "https://rubygems.org/gems/murmurhash3-0.1.7.gem",
  "homepage_uri": "https://github.com/funny-falcon/murmurhash3-ruby",
  "wiki_uri": null,
  "documentation_uri": "https://www.rubydoc.info/gems/murmurhash3/0.1.7",
  "mailing_list_uri": null,
  "source_code_uri": null,
  "bug_tracker_uri": null,
  "changelog_uri": null,
  "funding_uri": null
}