{
  "metadata": {
  },
  "project_uri": "https://rubygems.org/gems/rack-cors",
  "gem_uri": "https://rubygems.org/gems/rack-cors-2.0.1.gem",
  "homepage_uri": "https://github.com/cyu/rack-cors",
  "wiki_uri": null,
  "documentation_uri": "https://www.rubydoc.info/gems/rack-cors/2.0.1",
  "mailing_list_uri": null,
  "source_code_uri": null,
  "bug_tracker_uri": null,
  "changelog_uri": null,
  "funding_uri": null
}