{
  "metadata": {
  },
  "project_uri": "https://rubygems.org/gems/ffi-compiler",
  "gem_uri": "https://rubygems.org/gems/ffi-compiler-1.0.1.gem",
  "homepage_uri": "http://wiki.github.com/ffi/ffi",
  "wiki_uri": null,
  "documentation_uri": "https://www.rubydoc.info/gems/ffi-compiler/1.0.1",
  "mailing_list_uri": null,
  "source_code_uri": null,
  "bug_tracker_uri": null,
  "changelog_uri": null,
  "funding_uri": null
}