{
  "metadata": {
  },
  "project_uri": "https://rubygems.org/gems/extended-markdown-filter",
  "gem_uri": "https://rubygems.org/gems/extended-markdown-filter-0.7.0.gem",
  "homepage_uri": "",
  "wiki_uri": null,
  "documentation_uri": "https://www.rubydoc.info/gems/extended-markdown-filter/0.7.0",
  "mailing_list_uri": null,
  "source_code_uri": null,
  "bug_tracker_uri": null,
  "changelog_uri": null,
  "funding_uri": null
}