{
  "metadata": {
  },
  "project_uri": "https://rubygems.org/gems/simplecov-html",
  "gem_uri": "https://rubygems.org/gems/simplecov-html-0.12.3.gem",
  "homepage_uri": "https://github.com/simplecov-ruby/simplecov-html",
  "wiki_uri": null,
  "documentation_uri": "https://www.rubydoc.info/gems/simplecov-html/0.12.3",
  "mailing_list_uri": null,
  "source_code_uri": null,
  "bug_tracker_uri": null,
  "changelog_uri": null,
  "funding_uri": null
}