{
  "metadata": {
    "rubygems_mfa_required": "true"
  },
  "project_uri": "https://rubygems.org/gems/bundler-audit",
  "gem_uri": "https://rubygems.org/gems/bundler-audit-0.9.1.gem",
  "homepage_uri": "https://github.com/rubysec/bundler-audit#readme",
  "wiki_uri": "",
  "documentation_uri": "http://rubydoc.info/gems/bundler-audit/frames",
  "mailing_list_uri": "",
  "source_code_uri": "https://github.com/postmodern/bundler-audit",
  "bug_tracker_uri": "https://github.com/postmodern/bundler-audit/issues",
  "changelog_uri": null,
  "funding_uri": null
}