{
  "metadata": {
  },
  "project_uri": "https://rubygems.org/gems/http-form_data",
  "gem_uri": "https://rubygems.org/gems/http-form_data-2.3.0.gem",
  "homepage_uri": "https://github.com/httprb/form_data.rb",
  "wiki_uri": null,
  "documentation_uri": "https://www.rubydoc.info/gems/http-form_data/2.3.0",
  "mailing_list_uri": null,
  "source_code_uri": null,
  "bug_tracker_uri": null,
  "changelog_uri": null,
  "funding_uri": null
}