{
  "metadata": {
    "homepage_uri": "https://github.com/sparklemotion/sqlite3-ruby",
    "changelog_uri": "https://github.com/sparklemotion/sqlite3-ruby/blob/master/CHANGELOG.md",
    "bug_tracker_uri": "https://github.com/sparklemotion/sqlite3-ruby/issues",
    "source_code_uri": "https://github.com/sparklemotion/sqlite3-ruby",
    "documentation_uri": "https://www.rubydoc.info/gems/sqlite3",
    "rubygems_mfa_required": "true",
    "msys2_mingw_dependencies": "sqlite3"
  },
  "project_uri": "https://rubygems.org/gems/sqlite3",
  "gem_uri": "https://rubygems.org/gems/sqlite3-1.6.5.gem",
  "homepage_uri": "https://github.com/sparklemotion/sqlite3-ruby",
  "wiki_uri": null,
  "documentation_uri": "https://www.rubydoc.info/gems/sqlite3",
  "mailing_list_uri": null,
  "source_code_uri": "https://github.com/sparklemotion/sqlite3-ruby",
  "bug_tracker_uri": "https://github.com/sparklemotion/sqlite3-ruby/issues",
  "changelog_uri": "https://github.com/sparklemotion/sqlite3-ruby/blob/master/CHANGELOG.md",
  "funding_uri": null
}