{
  "metadata": {
    "changelog_uri": "https://github.com/roidrage/lograge/blob/master/CHANGELOG.md",
    "rubygems_mfa_required": "true"
  },
  "project_uri": "https://rubygems.org/gems/lograge",
  "gem_uri": "https://rubygems.org/gems/lograge-0.13.0.gem",
  "homepage_uri": "https://github.com/roidrage/lograge",
  "wiki_uri": null,
  "documentation_uri": null,
  "mailing_list_uri": null,
  "source_code_uri": null,
  "bug_tracker_uri": null,
  "changelog_uri": "https://github.com/roidrage/lograge/blob/master/CHANGELOG.md",
  "funding_uri": null
}