{
  "metadata": {
    "msys2_mingw_dependencies": "libssh2 cmake"
  },
  "project_uri": "https://rubygems.org/gems/rugged",
  "gem_uri": "https://rubygems.org/gems/rugged-1.7.1.gem",
  "homepage_uri": "https://github.com/libgit2/rugged",
  "wiki_uri": null,
  "documentation_uri": "https://www.rubydoc.info/gems/rugged/1.7.1",
  "mailing_list_uri": null,
  "source_code_uri": null,
  "bug_tracker_uri": null,
  "changelog_uri": null,
  "funding_uri": null
}