{
  "metadata": {
    "changelog_uri": "https://github.com/ruby/rake/blob/v13.0.6/History.rdoc",
    "bug_tracker_uri": "https://github.com/ruby/rake/issues",
    "source_code_uri": "https://github.com/ruby/rake/tree/v13.0.6",
    "documentation_uri": "https://ruby.github.io/rake"
  },
  "project_uri": "https://rubygems.org/gems/rake",
  "gem_uri": "https://rubygems.org/gems/rake-13.0.6.gem",
  "homepage_uri": "https://github.com/ruby/rake",
  "wiki_uri": null,
  "documentation_uri": "https://ruby.github.io/rake",
  "mailing_list_uri": null,
  "source_code_uri": "https://github.com/ruby/rake/tree/v13.0.6",
  "bug_tracker_uri": "https://github.com/ruby/rake/issues",
  "changelog_uri": "https://github.com/ruby/rake/blob/v13.0.6/History.rdoc",
  "funding_uri": null
}