{
  "metadata": {
  },
  "project_uri": "https://rubygems.org/gems/spamcheck",
  "gem_uri": "https://rubygems.org/gems/spamcheck-1.3.0.gem",
  "homepage_uri": "https://gitlab.com/gitlab-org/gl-security/security-engineering/security-automation/spam/spamcheck",
  "wiki_uri": null,
  "documentation_uri": "https://www.rubydoc.info/gems/spamcheck/1.3.0",
  "mailing_list_uri": null,
  "source_code_uri": null,
  "bug_tracker_uri": null,
  "changelog_uri": null,
  "funding_uri": null
}