{
  "metadata": {
    "changelog_uri": "https://github.com/googleapis/google-api-ruby-client/tree/main/generated/google-apis-sqladmin_v1beta4/CHANGELOG.md",
    "bug_tracker_uri": "https://github.com/googleapis/google-api-ruby-client/issues",
    "source_code_uri": "https://github.com/googleapis/google-api-ruby-client/tree/main/generated/google-apis-sqladmin_v1beta4",
    "documentation_uri": "https://googleapis.dev/ruby/google-apis-sqladmin_v1beta4/v0.55.0"
  },
  "project_uri": "https://rubygems.org/gems/google-apis-sqladmin_v1beta4",
  "gem_uri": "https://rubygems.org/gems/google-apis-sqladmin_v1beta4-0.55.0.gem",
  "homepage_uri": "https://github.com/google/google-api-ruby-client",
  "wiki_uri": null,
  "documentation_uri": "https://googleapis.dev/ruby/google-apis-sqladmin_v1beta4/v0.55.0",
  "mailing_list_uri": null,
  "source_code_uri": "https://github.com/googleapis/google-api-ruby-client/tree/main/generated/google-apis-sqladmin_v1beta4",
  "bug_tracker_uri": "https://github.com/googleapis/google-api-ruby-client/issues",
  "changelog_uri": "https://github.com/googleapis/google-api-ruby-client/tree/main/generated/google-apis-sqladmin_v1beta4/CHANGELOG.md",
  "funding_uri": null
}