{
  "metadata": {
    "homepage_uri": "http://sinatrarb.com/protection/",
    "source_code_uri": "https://github.com/sinatra/sinatra/tree/main/rack-protection",
    "documentation_uri": "https://www.rubydoc.info/gems/rack-protection",
    "rubygems_mfa_required": "true"
  },
  "project_uri": "https://rubygems.org/gems/rack-protection",
  "gem_uri": "https://rubygems.org/gems/rack-protection-3.1.0.gem",
  "homepage_uri": "http://sinatrarb.com/protection/",
  "wiki_uri": null,
  "documentation_uri": "https://www.rubydoc.info/gems/rack-protection",
  "mailing_list_uri": null,
  "source_code_uri": "https://github.com/sinatra/sinatra/tree/main/rack-protection",
  "bug_tracker_uri": null,
  "changelog_uri": null,
  "funding_uri": null
}