{
  "metadata": {
  },
  "project_uri": "https://rubygems.org/gems/netrc",
  "gem_uri": "https://rubygems.org/gems/netrc-0.11.0.gem",
  "homepage_uri": "https://github.com/geemus/netrc",
  "wiki_uri": null,
  "documentation_uri": "https://www.rubydoc.info/gems/netrc/0.11.0",
  "mailing_list_uri": null,
  "source_code_uri": null,
  "bug_tracker_uri": null,
  "changelog_uri": null,
  "funding_uri": null
}