{
  "metadata": {
  },
  "project_uri": "https://rubygems.org/gems/simplecov_json_formatter",
  "gem_uri": "https://rubygems.org/gems/simplecov_json_formatter-0.1.4.gem",
  "homepage_uri": "https://github.com/fede-moya/simplecov_json_formatter",
  "wiki_uri": null,
  "documentation_uri": "https://www.rubydoc.info/gems/simplecov_json_formatter/0.1.4",
  "mailing_list_uri": null,
  "source_code_uri": null,
  "bug_tracker_uri": null,
  "changelog_uri": null,
  "funding_uri": null
}