{
  "metadata": {
  },
  "project_uri": "https://rubygems.org/gems/rqrcode-rails3",
  "gem_uri": "https://rubygems.org/gems/rqrcode-rails3-0.1.7.gem",
  "homepage_uri": "http://github.com/samvincent/rqrcode-rails3",
  "wiki_uri": null,
  "documentation_uri": "https://www.rubydoc.info/gems/rqrcode-rails3/0.1.7",
  "mailing_list_uri": null,
  "source_code_uri": null,
  "bug_tracker_uri": null,
  "changelog_uri": null,
  "funding_uri": null
}