{
  "metadata": {
    "changelog_uri": "https://github.com/thoughtbot/factory_bot/blob/main/NEWS.md"
  },
  "project_uri": "https://rubygems.org/gems/factory_bot",
  "gem_uri": "https://rubygems.org/gems/factory_bot-6.3.0.gem",
  "homepage_uri": "https://github.com/thoughtbot/factory_bot",
  "wiki_uri": null,
  "documentation_uri": null,
  "mailing_list_uri": null,
  "source_code_uri": null,
  "bug_tracker_uri": null,
  "changelog_uri": "https://github.com/thoughtbot/factory_bot/blob/main/NEWS.md",
  "funding_uri": null
}