{
  "metadata": {
    "changelog_uri": "https://github.com/premailer/css_parser/blob/master/CHANGELOG.md",
    "bug_tracker_uri": "https://github.com/premailer/css_parser/issues",
    "source_code_uri": "https://github.com/premailer/css_parser"
  },
  "project_uri": "https://rubygems.org/gems/css_parser",
  "gem_uri": "https://rubygems.org/gems/css_parser-1.16.0.gem",
  "homepage_uri": "https://github.com/premailer/css_parser",
  "wiki_uri": null,
  "documentation_uri": null,
  "mailing_list_uri": null,
  "source_code_uri": "https://github.com/premailer/css_parser",
  "bug_tracker_uri": "https://github.com/premailer/css_parser/issues",
  "changelog_uri": "https://github.com/premailer/css_parser/blob/master/CHANGELOG.md",
  "funding_uri": null
}