{
  "metadata": {
  },
  "project_uri": "https://rubygems.org/gems/coercible",
  "gem_uri": "https://rubygems.org/gems/coercible-1.0.0.gem",
  "homepage_uri": "https://github.com/solnic/coercible",
  "wiki_uri": "",
  "documentation_uri": "http://rubydoc.info/github/solnic/coercible/master/frames",
  "mailing_list_uri": "",
  "source_code_uri": "https://github.com/solnic/coercible",
  "bug_tracker_uri": "https://github.com/solnic/coercible/issues",
  "changelog_uri": null,
  "funding_uri": null
}