{
  "metadata": {
    "changelog_uri": "https://github.com/aws/aws-sdk-ruby/tree/version-3/gems/aws-partitions/CHANGELOG.md",
    "source_code_uri": "https://github.com/aws/aws-sdk-ruby/tree/version-3/gems/aws-partitions"
  },
  "project_uri": "https://rubygems.org/gems/aws-partitions",
  "gem_uri": "https://rubygems.org/gems/aws-partitions-1.820.0.gem",
  "homepage_uri": "https://github.com/aws/aws-sdk-ruby",
  "wiki_uri": null,
  "documentation_uri": null,
  "mailing_list_uri": null,
  "source_code_uri": "https://github.com/aws/aws-sdk-ruby/tree/version-3/gems/aws-partitions",
  "bug_tracker_uri": null,
  "changelog_uri": "https://github.com/aws/aws-sdk-ruby/tree/version-3/gems/aws-partitions/CHANGELOG.md",
  "funding_uri": null
}