{
  "metadata": {
    "changelog_uri": "https://github.com/rails/rails/blob/v7.0.8/activejob/CHANGELOG.md",
    "bug_tracker_uri": "https://github.com/rails/rails/issues",
    "source_code_uri": "https://github.com/rails/rails/tree/v7.0.8/activejob",
    "mailing_list_uri": "https://discuss.rubyonrails.org/c/rubyonrails-talk",
    "documentation_uri": "https://api.rubyonrails.org/v7.0.8/",
    "rubygems_mfa_required": "true"
  },
  "project_uri": "https://rubygems.org/gems/activejob",
  "gem_uri": "https://rubygems.org/gems/activejob-7.0.8.gem",
  "homepage_uri": "https://rubyonrails.org",
  "wiki_uri": null,
  "documentation_uri": "https://api.rubyonrails.org/v7.0.8/",
  "mailing_list_uri": "https://discuss.rubyonrails.org/c/rubyonrails-talk",
  "source_code_uri": "https://github.com/rails/rails/tree/v7.0.8/activejob",
  "bug_tracker_uri": "https://github.com/rails/rails/issues",
  "changelog_uri": "https://github.com/rails/rails/blob/v7.0.8/activejob/CHANGELOG.md",
  "funding_uri": null
}