{
  "metadata": {
  },
  "project_uri": "https://rubygems.org/gems/recursive-open-struct",
  "gem_uri": "https://rubygems.org/gems/recursive-open-struct-1.1.3.gem",
  "homepage_uri": "https://github.com/aetherknight/recursive-open-struct",
  "wiki_uri": null,
  "documentation_uri": "https://www.rubydoc.info/gems/recursive-open-struct/1.1.3",
  "mailing_list_uri": null,
  "source_code_uri": null,
  "bug_tracker_uri": null,
  "changelog_uri": null,
  "funding_uri": null
}