{
  "metadata": {
    "changelog_uri": "https://googleapis.dev/ruby/google-cloud-env/v1.6.0/file.CHANGELOG.html",
    "bug_tracker_uri": "https://github.com/googleapis/ruby-cloud-env/issues",
    "source_code_uri": "https://github.com/googleapis/ruby-cloud-env",
    "documentation_uri": "https://googleapis.dev/ruby/google-cloud-env/v1.6.0"
  },
  "project_uri": "https://rubygems.org/gems/google-cloud-env",
  "gem_uri": "https://rubygems.org/gems/google-cloud-env-1.6.0.gem",
  "homepage_uri": "https://github.com/googleapis/ruby-cloud-env",
  "wiki_uri": null,
  "documentation_uri": "https://googleapis.dev/ruby/google-cloud-env/v1.6.0",
  "mailing_list_uri": null,
  "source_code_uri": "https://github.com/googleapis/ruby-cloud-env",
  "bug_tracker_uri": "https://github.com/googleapis/ruby-cloud-env/issues",
  "changelog_uri": "https://googleapis.dev/ruby/google-cloud-env/v1.6.0/file.CHANGELOG.html",
  "funding_uri": null
}