{
  "metadata": {
  },
  "project_uri": "https://rubygems.org/gems/google-cloud-storage",
  "gem_uri": "https://rubygems.org/gems/google-cloud-storage-1.44.0.gem",
  "homepage_uri": "https://github.com/googleapis/google-cloud-ruby/tree/master/google-cloud-storage",
  "wiki_uri": "",
  "documentation_uri": "http://googlecloudplatform.github.io/google-cloud-ruby/#/docs/google-cloud-storage/latest",
  "mailing_list_uri": "",
  "source_code_uri": "",
  "bug_tracker_uri": "https://github.com/GoogleCloudPlatform/google-cloud-ruby/labels/API%3A%20storage",
  "changelog_uri": null,
  "funding_uri": null
}