{
  "metadata": {
  },
  "project_uri": "https://rubygems.org/gems/regexp_property_values",
  "gem_uri": "https://rubygems.org/gems/regexp_property_values-1.4.0.gem",
  "homepage_uri": "https://github.com/jaynetics/regexp_property_values",
  "wiki_uri": null,
  "documentation_uri": "https://www.rubydoc.info/gems/regexp_property_values/1.4.0",
  "mailing_list_uri": null,
  "source_code_uri": null,
  "bug_tracker_uri": null,
  "changelog_uri": null,
  "funding_uri": null
}