{
  "metadata": {
  },
  "project_uri": "https://rubygems.org/gems/unf",
  "gem_uri": "https://rubygems.org/gems/unf-0.1.4.gem",
  "homepage_uri": "https://github.com/knu/ruby-unf",
  "wiki_uri": null,
  "documentation_uri": "https://www.rubydoc.info/gems/unf/0.1.4",
  "mailing_list_uri": null,
  "source_code_uri": null,
  "bug_tracker_uri": null,
  "changelog_uri": null,
  "funding_uri": null
}