{
  "metadata": {
  },
  "project_uri": "https://rubygems.org/gems/gitlab-fog-azure-rm",
  "gem_uri": "https://rubygems.org/gems/gitlab-fog-azure-rm-1.8.0.gem",
  "homepage_uri": "https://gitlab.com/gitlab-org/gitlab-fog-azure-rm",
  "wiki_uri": null,
  "documentation_uri": "https://www.rubydoc.info/gems/gitlab-fog-azure-rm/1.8.0",
  "mailing_list_uri": null,
  "source_code_uri": null,
  "bug_tracker_uri": null,
  "changelog_uri": null,
  "funding_uri": null
}