{
  "metadata": {
  },
  "project_uri": "https://rubygems.org/gems/representable",
  "gem_uri": "https://rubygems.org/gems/representable-3.2.0.gem",
  "homepage_uri": "https://github.com/trailblazer/representable/",
  "wiki_uri": null,
  "documentation_uri": "https://www.rubydoc.info/gems/representable/3.2.0",
  "mailing_list_uri": null,
  "source_code_uri": null,
  "bug_tracker_uri": null,
  "changelog_uri": null,
  "funding_uri": null
}