{
  "metadata": {
  },
  "project_uri": "https://rubygems.org/gems/danger",
  "gem_uri": "https://rubygems.org/gems/danger-9.3.1.gem",
  "homepage_uri": "https://github.com/danger/danger",
  "wiki_uri": null,
  "documentation_uri": "https://www.rubydoc.info/gems/danger/9.3.1",
  "mailing_list_uri": null,
  "source_code_uri": null,
  "bug_tracker_uri": null,
  "changelog_uri": null,
  "funding_uri": null
}