{
  "metadata": {
    "homepage_uri": "https://gitlab.com/gitlab-org/ruby/gems/tanuki_emoji",
    "changelog_uri": "https://gitlab.com/gitlab-org/ruby/gems/tanuki_emoji/-/blob/main/CHANGELOG.md",
    "bug_tracker_uri": "https://gitlab.com/gitlab-org/ruby/gems/tanuki_emoji/-/issues",
    "source_code_uri": "https://gitlab.com/gitlab-org/ruby/gems/tanuki_emoji"
  },
  "project_uri": "https://rubygems.org/gems/tanuki_emoji",
  "gem_uri": "https://rubygems.org/gems/tanuki_emoji-0.7.0.gem",
  "homepage_uri": "https://gitlab.com/gitlab-org/ruby/gems/tanuki_emoji",
  "wiki_uri": null,
  "documentation_uri": null,
  "mailing_list_uri": null,
  "source_code_uri": "https://gitlab.com/gitlab-org/ruby/gems/tanuki_emoji",
  "bug_tracker_uri": "https://gitlab.com/gitlab-org/ruby/gems/tanuki_emoji/-/issues",
  "changelog_uri": "https://gitlab.com/gitlab-org/ruby/gems/tanuki_emoji/-/blob/main/CHANGELOG.md",
  "funding_uri": null
}