{
  "metadata": {
  },
  "project_uri": "https://rubygems.org/gems/graphiql-rails",
  "gem_uri": "https://rubygems.org/gems/graphiql-rails-1.9.0.gem",
  "homepage_uri": "http://github.com/rmosolgo/graphiql-rails",
  "wiki_uri": null,
  "documentation_uri": "https://www.rubydoc.info/gems/graphiql-rails/1.9.0",
  "mailing_list_uri": null,
  "source_code_uri": null,
  "bug_tracker_uri": null,
  "changelog_uri": null,
  "funding_uri": null
}