{
  "metadata": {
  },
  "project_uri": "https://rubygems.org/gems/diff_match_patch",
  "gem_uri": "https://rubygems.org/gems/diff_match_patch-0.1.0.gem",
  "homepage_uri": "https://github.com/kalmbach/diff_match_patch",
  "wiki_uri": null,
  "documentation_uri": "https://www.rubydoc.info/gems/diff_match_patch/0.1.0",
  "mailing_list_uri": null,
  "source_code_uri": null,
  "bug_tracker_uri": null,
  "changelog_uri": null,
  "funding_uri": null
}