{
  "metadata": {
    "homepage_uri": "https://github.com/rspec-parameterized/rspec-parameterized-core",
    "changelog_uri": "https://github.com/rspec-parameterized/rspec-parameterized-core/blob/main/CHANGELOG.md",
    "source_code_uri": "https://github.com/rspec-parameterized/rspec-parameterized-core",
    "rubygems_mfa_required": "true"
  },
  "project_uri": "https://rubygems.org/gems/rspec-parameterized-core",
  "gem_uri": "https://rubygems.org/gems/rspec-parameterized-core-1.0.0.gem",
  "homepage_uri": "https://github.com/rspec-parameterized/rspec-parameterized-core",
  "wiki_uri": null,
  "documentation_uri": null,
  "mailing_list_uri": null,
  "source_code_uri": "https://github.com/rspec-parameterized/rspec-parameterized-core",
  "bug_tracker_uri": null,
  "changelog_uri": "https://github.com/rspec-parameterized/rspec-parameterized-core/blob/main/CHANGELOG.md",
  "funding_uri": null
}