{
  "metadata": {
  },
  "project_uri": "https://rubygems.org/gems/execjs",
  "gem_uri": "https://rubygems.org/gems/execjs-2.9.0.gem",
  "homepage_uri": "https://github.com/rails/execjs",
  "wiki_uri": null,
  "documentation_uri": "https://www.rubydoc.info/gems/execjs/2.9.0",
  "mailing_list_uri": null,
  "source_code_uri": null,
  "bug_tracker_uri": null,
  "changelog_uri": null,
  "funding_uri": null
}