{
  "metadata": {
  },
  "project_uri": "https://rubygems.org/gems/faraday_middleware",
  "gem_uri": "https://rubygems.org/gems/faraday_middleware-1.2.0.gem",
  "homepage_uri": "https://github.com/lostisland/faraday_middleware",
  "wiki_uri": null,
  "documentation_uri": "https://www.rubydoc.info/gems/faraday_middleware/1.2.0",
  "mailing_list_uri": null,
  "source_code_uri": null,
  "bug_tracker_uri": null,
  "changelog_uri": null,
  "funding_uri": null
}