{
  "metadata": {
  },
  "project_uri": "https://rubygems.org/gems/heapy",
  "gem_uri": "https://rubygems.org/gems/heapy-0.2.0.gem",
  "homepage_uri": "https://github.com/schneems/heapy",
  "wiki_uri": null,
  "documentation_uri": "https://www.rubydoc.info/gems/heapy/0.2.0",
  "mailing_list_uri": null,
  "source_code_uri": null,
  "bug_tracker_uri": null,
  "changelog_uri": null,
  "funding_uri": null
}