{
  "metadata": {
    "homepage_uri": "https://github.com/ruby/net-protocol",
    "source_code_uri": "https://github.com/ruby/net-protocol"
  },
  "project_uri": "https://rubygems.org/gems/net-protocol",
  "gem_uri": "https://rubygems.org/gems/net-protocol-0.2.1.gem",
  "homepage_uri": "https://github.com/ruby/net-protocol",
  "wiki_uri": null,
  "documentation_uri": null,
  "mailing_list_uri": null,
  "source_code_uri": "https://github.com/ruby/net-protocol",
  "bug_tracker_uri": null,
  "changelog_uri": null,
  "funding_uri": null
}