{
  "metadata": {
  },
  "project_uri": "https://rubygems.org/gems/gssapi",
  "gem_uri": "https://rubygems.org/gems/gssapi-1.3.1.gem",
  "homepage_uri": "http://github.com/zenchild/gssapi",
  "wiki_uri": "https://github.com/zenchild/gssapi/wiki",
  "documentation_uri": "https://www.rubydoc.info/gems/gssapi/1.3.1",
  "mailing_list_uri": "",
  "source_code_uri": "",
  "bug_tracker_uri": "",
  "changelog_uri": null,
  "funding_uri": null
}