{
  "metadata": {
  },
  "project_uri": "https://rubygems.org/gems/seed-fu",
  "gem_uri": "https://rubygems.org/gems/seed-fu-2.3.9.gem",
  "homepage_uri": "http://github.com/mbleigh/seed-fu",
  "wiki_uri": "",
  "documentation_uri": "https://www.rubydoc.info/gems/seed-fu/2.3.9",
  "mailing_list_uri": "",
  "source_code_uri": "http://github.com/mbleigh/seed-fu",
  "bug_tracker_uri": "",
  "changelog_uri": null,
  "funding_uri": null
}