{
  "metadata": {
  },
  "project_uri": "https://rubygems.org/gems/term-ansicolor",
  "gem_uri": "https://rubygems.org/gems/term-ansicolor-1.7.1.gem",
  "homepage_uri": "http://flori.github.com/term-ansicolor",
  "wiki_uri": "",
  "documentation_uri": "http://flori.github.com/term-ansicolor/doc/index.html",
  "mailing_list_uri": "",
  "source_code_uri": "http://github.com/flori/term-ansicolor",
  "bug_tracker_uri": "http://github.com/flori/term-ansicolor/issues",
  "changelog_uri": null,
  "funding_uri": null
}