{
  "metadata": {
  },
  "project_uri": "https://rubygems.org/gems/xml-simple",
  "gem_uri": "https://rubygems.org/gems/xml-simple-1.1.9.gem",
  "homepage_uri": "https://github.com/maik/xml-simple",
  "wiki_uri": null,
  "documentation_uri": "https://www.rubydoc.info/gems/xml-simple/1.1.9",
  "mailing_list_uri": null,
  "source_code_uri": null,
  "bug_tracker_uri": null,
  "changelog_uri": null,
  "funding_uri": null
}