{
  "metadata": {
  },
  "project_uri": "https://rubygems.org/gems/arr-pm",
  "gem_uri": "https://rubygems.org/gems/arr-pm-0.0.12.gem",
  "homepage_uri": null,
  "wiki_uri": null,
  "documentation_uri": "https://www.rubydoc.info/gems/arr-pm/0.0.12",
  "mailing_list_uri": null,
  "source_code_uri": null,
  "bug_tracker_uri": null,
  "changelog_uri": null,
  "funding_uri": null
}