{
  "metadata": {
  },
  "project_uri": "https://rubygems.org/gems/llhttp-ffi",
  "gem_uri": "https://rubygems.org/gems/llhttp-ffi-0.5.0.gem",
  "homepage_uri": "https://github.com/bryanp/llhttp/",
  "wiki_uri": null,
  "documentation_uri": "https://www.rubydoc.info/gems/llhttp-ffi/0.5.0",
  "mailing_list_uri": null,
  "source_code_uri": null,
  "bug_tracker_uri": null,
  "changelog_uri": null,
  "funding_uri": null
}