{
  "metadata": {
    "homepage_uri": "https://github.com/lostisland/faraday-excon",
    "changelog_uri": "https://github.com/lostisland/faraday-excon/releases/tag/v2.1.0",
    "source_code_uri": "https://github.com/lostisland/faraday-excon"
  },
  "project_uri": "https://rubygems.org/gems/faraday-excon",
  "gem_uri": "https://rubygems.org/gems/faraday-excon-2.1.0.gem",
  "homepage_uri": "https://github.com/lostisland/faraday-excon",
  "wiki_uri": null,
  "documentation_uri": null,
  "mailing_list_uri": null,
  "source_code_uri": "https://github.com/lostisland/faraday-excon",
  "bug_tracker_uri": null,
  "changelog_uri": "https://github.com/lostisland/faraday-excon/releases/tag/v2.1.0",
  "funding_uri": null
}