{
  "metadata": {
  },
  "project_uri": "https://rubygems.org/gems/rubyntlm",
  "gem_uri": "https://rubygems.org/gems/rubyntlm-0.6.3.gem",
  "homepage_uri": "https://github.com/winrb/rubyntlm",
  "wiki_uri": "https://github.com/winrb/rubyntlm/wiki",
  "documentation_uri": "https://www.rubydoc.info/gems/rubyntlm/0.6.3",
  "mailing_list_uri": "https://groups.google.com/forum/#!forum/rubyntlm",
  "source_code_uri": "https://github.com/winrb/rubyntlm",
  "bug_tracker_uri": "https://github.com/winrb/rubyntlm/issues",
  "changelog_uri": null,
  "funding_uri": null
}