{
  "metadata": {
  },
  "project_uri": "https://rubygems.org/gems/js_regex",
  "gem_uri": "https://rubygems.org/gems/js_regex-3.11.0.gem",
  "homepage_uri": "https://github.com/jaynetics/js_regex",
  "wiki_uri": null,
  "documentation_uri": "https://www.rubydoc.info/gems/js_regex/3.11.0",
  "mailing_list_uri": null,
  "source_code_uri": null,
  "bug_tracker_uri": null,
  "changelog_uri": null,
  "funding_uri": null
}