{
  "metadata": {
  },
  "project_uri": "https://rubygems.org/gems/aes_key_wrap",
  "gem_uri": "https://rubygems.org/gems/aes_key_wrap-1.1.0.gem",
  "homepage_uri": "https://github.com/tomdalling/aes_key_wrap",
  "wiki_uri": null,
  "documentation_uri": "https://www.rubydoc.info/gems/aes_key_wrap/1.1.0",
  "mailing_list_uri": null,
  "source_code_uri": null,
  "bug_tracker_uri": null,
  "changelog_uri": null,
  "funding_uri": null
}