{
  "metadata": {
  },
  "project_uri": "https://rubygems.org/gems/gitlab-chronic",
  "gem_uri": "https://rubygems.org/gems/gitlab-chronic-0.10.6.gem",
  "homepage_uri": "https://gitlab.com/gitlab-org/gitlab-chronic",
  "wiki_uri": null,
  "documentation_uri": "https://www.rubydoc.info/gems/gitlab-chronic/0.10.6",
  "mailing_list_uri": null,
  "source_code_uri": null,
  "bug_tracker_uri": null,
  "changelog_uri": null,
  "funding_uri": null
}